Sample R Markdown Document
…
Lorem ipsum dolor sit amet, consectetur adipiscing elit, sed do eiusmod tempor incididunt ut labore et dolore magna aliqua. Ut enim ad minim veniam, quis nostrud exercitation ullamco laboris nisi ut aliquip ex ea commodo consequat. Duis aute irure dolor in reprehenderit in voluptate velit esse cillum dolore eu fugiat nulla pariatur. Excepteur sint occaecat cupidatat non proident, sunt in culpa qui officia deserunt mollit anim id est laborum. Lorem ipsum dolor sit amet, consectetur adipiscing elit, sed do eiusmod tempor incididunt ut labore et dolore magna aliqua. Ut enim ad minim veniam, quis nostrud exercitation ullamco laboris nisi ut aliquip ex ea commodo consequat. Duis aute irure dolor in reprehenderit in voluptate velit esse cillum dolore eu fugiat nulla pariatur. Excepteur sint occaecat cupidatat non proident, sunt in culpa qui officia deserunt mollit anim id est laborum.

Header 2

Lorem ipsum dolor sit amet, consectetur adipiscing elit, sed do eiusmod tempor incididunt ut labore et dolore magna aliqua. Ut enim ad minim veniam, quis nostrud exercitation ullamco laboris nisi ut aliquip ex ea commodo consequat. Duis aute irure dolor in reprehenderit in voluptate velit esse cillum dolore eu fugiat nulla pariatur. Excepteur sint occaecat cupidatat non proident, sunt in culpa qui officia deserunt mollit anim id est laborum.

tibble(
  a = Sys.time() + runif(1e3) * 86400,
  b = Sys.Date() + runif(1e3) * 30,
  c = 1:1e3,
  d = runif(1e3),
  e = sample(letters, 1e3, replace = TRUE)
)
#> # A tibble: 1,000 x 5
#>    a                   b              c      d e    
#>    <dttm>              <date>     <int>  <dbl> <chr>
#>  1 2020-03-13 02:21:14 2020-03-25     1 0.386  i    
#>  2 2020-03-13 06:44:38 2020-03-19     2 0.952  h    
#>  3 2020-03-13 12:25:15 2020-03-26     3 0.726  j    
#>  4 2020-03-13 12:29:13 2020-04-09     4 0.147  k    
#>  5 2020-03-13 09:32:24 2020-04-08     5 0.606  d    
#>  6 2020-03-13 13:51:40 2020-03-31     6 0.144  p    
#>  7 2020-03-13 12:28:18 2020-04-10     7 0.681  g    
#>  8 2020-03-13 06:44:31 2020-04-05     8 0.365  y    
#>  9 2020-03-13 04:18:51 2020-03-14     9 0.0783 p    
#> 10 2020-03-13 20:49:29 2020-03-14    10 0.594  z    
#> #  with 990 more rows
…
